<?xml version="1.0" encoding="UTF-8"?>
<!DOCTYPE svg PUBLIC "-//W3C//DTD SVG 1.1//EN" "http://www.w3.org/Graphics/SVG/1.1/DTD/svg11.dtd">
<!-- Creator: CorelDRAW 2021.5 -->
<svg xmlns="http://www.w3.org/2000/svg" xml:space="preserve" width="64px" height="64px" version="1.1" style="shape-rendering:geometricPrecision; text-rendering:geometricPrecision; image-rendering:optimizeQuality; fill-rule:evenodd; clip-rule:evenodd"
viewBox="0 0 64 64"
 xmlns:xlink="http://www.w3.org/1999/xlink"
 xmlns:xodm="http://www.corel.com/coreldraw/odm/2003">
 <defs>
  <style type="text/css">
   <![CDATA[
    .str6 {stroke:#FFCC2A;stroke-width:2.36;stroke-miterlimit:22.9256}
    .str4 {stroke:#00A85A;stroke-width:2.36;stroke-miterlimit:22.9256}
    .str2 {stroke:#0098DB;stroke-width:2.36;stroke-miterlimit:22.9256}
    .str5 {stroke:#FFCC2A;stroke-width:1.8;stroke-miterlimit:10}
    .str3 {stroke:#00A85A;stroke-width:1.8;stroke-miterlimit:10}
    .str1 {stroke:#0098DB;stroke-width:1.8;stroke-miterlimit:10}
    .str0 {stroke:#131613;stroke-width:1.8;stroke-miterlimit:10}
    .fil1 {fill:none;fill-rule:nonzero}
    .fil6 {fill:#FFCC2A}
    .fil5 {fill:#00A85A}
    .fil4 {fill:#131613}
    .fil3 {fill:#0098DB;fill-rule:nonzero}
    .fil7 {fill:#002338;fill-rule:nonzero}
    .fil2 {fill:#131613;fill-rule:nonzero}
    .fil0 {fill:#FBFBF6;fill-rule:nonzero}
   ]]>
  </style>
 </defs>
 <g id="Layer_x0020_1">
  <metadata id="CorelCorpID_0Corel-Layer"/>
  <polygon class="fil0" points="-2069.91,849.17 -4153.27,849.17 -4153.27,-1234.18 -2069.91,-1234.18 "/>
  <g id="_105553162687328">
   <g>
    <path class="fil1 str0" d="M-3731.99 314.35c-53.46,0 -96.8,-43.34 -96.8,-96.8"/>
    <path class="fil1 str0" d="M-3828.79 217.55c0,-53.46 43.34,-96.8 96.8,-96.8"/>
    <path class="fil1 str0" d="M-3731.99 120.75c53.46,0 96.8,43.34 96.8,96.8"/>
    <path class="fil1 str0" d="M-3635.19 217.55c0,53.46 -43.34,96.8 -96.8,96.8"/>
   </g>
   <path class="fil2" d="M-3779.84 217.59c0,26.4 21.4,47.81 47.81,47.81 3.06,0 6.06,-0.3 8.96,-0.85 4.2,2.54 9.13,4 14.41,4 15.41,0 27.9,-12.49 27.9,-27.9 0,-5.41 -1.54,-10.45 -4.2,-14.72 0.48,-2.71 0.74,-5.5 0.74,-8.34 0,-26.41 -21.41,-47.81 -47.81,-47.81 -3.01,0 -5.95,0.29 -8.8,0.82 -4.23,-2.57 -9.19,-4.05 -14.49,-4.05 -15.41,0 -27.9,12.49 -27.9,27.9 0,5.37 1.52,10.39 4.15,14.65 -0.5,2.75 -0.77,5.59 -0.77,8.49zm48.32 -33.97l0 0c15.43,0.9 24.45,7.69 25.33,14.02 0.43,4.14 -2.32,7.36 -7.1,7.36 -6.97,0 -7.68,-9.3 -19.69,-9.3 -5.42,0 -9.99,2.25 -9.99,7.14 0,10.21 38.48,4.28 38.48,26.75 0,12.96 -10.37,21.45 -25.85,21.45 -13.62,0 -27.31,-6.17 -27.24,-16.8 0.03,-3.21 2.42,-6.15 5.6,-6.15 8.02,0 7.95,11.92 20.71,11.92 8.96,0 12.02,-4.89 12.02,-8.3 0,-12.3 -38.71,-4.75 -38.71,-27.89 0,-12.51 10.28,-21.15 26.44,-20.2z"/>
  </g>
  <g id="_105553162728704">
   <g>
    <path class="fil1 str0" d="M-4059.17 314.35c-53.46,0 -96.8,-43.34 -96.8,-96.8"/>
    <path class="fil1 str0" d="M-4155.97 217.55c0,-53.46 43.34,-96.8 96.8,-96.8"/>
    <path class="fil1 str0" d="M-4059.17 120.75c53.46,0 96.8,43.34 96.8,96.8"/>
    <path class="fil1 str0" d="M-3962.37 217.55c0,53.46 -43.34,96.8 -96.8,96.8"/>
   </g>
   <g>
    <polygon class="fil2" points="-4111.88,195.6 -4085.52,212.4 -4059.15,195.6 -4085.52,178.8 "/>
    <polygon class="fil2" points="-4059.19,195.6 -4032.83,212.4 -4006.46,195.6 -4032.83,178.8 "/>
    <polygon class="fil2" points="-4111.88,228.96 -4085.52,245.75 -4059.15,228.96 -4085.52,212.16 "/>
    <polygon class="fil2" points="-4032.83,212.16 -4059.19,228.96 -4032.83,245.75 -4006.46,228.96 "/>
    <polygon class="fil2" points="-4085.35,251.32 -4058.98,268.12 -4032.62,251.32 -4058.98,234.52 "/>
   </g>
  </g>
  <g id="_105553162627648">
   <g>
    <path class="fil1 str0" d="M-4059.17 -8.06c-53.46,0 -96.8,-43.34 -96.8,-96.8"/>
    <path class="fil1 str0" d="M-4155.97 -104.86c0,-53.46 43.34,-96.8 96.8,-96.8"/>
    <path class="fil1 str0" d="M-4059.17 -201.66c53.46,0 96.8,43.34 96.8,96.8"/>
    <path class="fil1 str0" d="M-3962.37 -104.86c0,53.46 -43.34,96.8 -96.8,96.8"/>
   </g>
   <path class="fil2" d="M-4007.74 -130.86c-1.24,-4.65 -4.87,-8.31 -9.49,-9.55 -8.37,-2.26 -41.94,-2.26 -41.94,-2.26 0,0 -33.57,0 -41.94,2.26 -4.62,1.24 -8.26,4.9 -9.5,9.55 -2.24,8.42 -2.24,26 -2.24,26 0,0 0,17.58 2.24,26.01 1.24,4.65 4.88,8.31 9.5,9.55 8.37,2.26 41.94,2.26 41.94,2.26 0,0 33.57,0 41.94,-2.26 4.62,-1.24 8.25,-4.9 9.49,-9.55 2.24,-8.43 2.24,-26.01 2.24,-26.01 0,0 0,-17.58 -2.24,-26zm-62.41 41.97l0 0 0 -31.93 28.05 15.96 -28.05 15.97z"/>
  </g>
  <g id="_105553162620160">
   <g>
    <path class="fil1 str1" d="M164.26 -85.98c-16.57,0 -30,-13.43 -30,-30"/>
    <path class="fil1 str1" d="M134.26 -115.98c0,-16.57 13.43,-30 30,-30"/>
    <path class="fil1 str1" d="M164.26 -145.98c16.57,0 30,13.43 30,30"/>
    <path class="fil1 str1" d="M194.26 -115.98c0,16.57 -13.43,30 -30,30"/>
   </g>
   <path class="fil3 str2" d="M150.09 -105.86c2.57,1.65 5.63,2.61 8.91,2.61 10.8,0 16.9,-9.12 16.53,-17.3 1.14,-0.82 2.12,-1.84 2.9,-3.01 -1.04,0.47 -2.16,0.78 -3.34,0.92 1.2,-0.72 2.12,-1.86 2.56,-3.22 -1.12,0.67 -2.37,1.15 -3.69,1.41 -1.06,-1.13 -2.58,-1.83 -4.25,-1.83 -3.75,0 -6.51,3.5 -5.66,7.14 -4.84,-0.24 -9.12,-2.56 -11.99,-6.08 -1.52,2.62 -0.79,6.03 1.8,7.77 -0.95,-0.03 -1.85,-0.3 -2.63,-0.73 -0.07,2.69 1.86,5.21 4.66,5.77 -0.82,0.23 -1.72,0.28 -2.62,0.1 0.73,2.31 2.88,3.99 5.43,4.04 -2.45,1.92 -5.53,2.77 -8.61,2.41z"/>
  </g>
  <g id="_105553162662976">
   <g>
    <path class="fil1 str0" d="M-2750.45 -8.06c-53.46,0 -96.8,-43.34 -96.8,-96.8"/>
    <path class="fil1 str0" d="M-2847.25 -104.86c0,-53.46 43.34,-96.8 96.8,-96.8"/>
    <path class="fil1 str0" d="M-2750.45 -201.66c53.46,0 96.8,43.34 96.8,96.8"/>
    <path class="fil1 str0" d="M-2653.65 -104.86c0,53.46 -43.34,96.8 -96.8,96.8"/>
   </g>
   <g>
    <g>
     <polygon class="fil2" points="-2791.76,-66.66 -2774,-66.66 -2774,-124.04 -2791.76,-124.04 "/>
     <path class="fil2" d="M-2782.97 -131.56c5.81,0 10.51,-4.74 10.51,-10.59 0,-5.85 -4.7,-10.59 -10.51,-10.59 -5.8,0 -10.5,4.74 -10.5,10.59 0,5.85 4.7,10.59 10.5,10.59z"/>
    </g>
    <path class="fil2" d="M-2745.6 -96.78c0,-8.07 3.71,-12.87 10.82,-12.87 6.53,0 9.67,4.61 9.67,12.87 0,8.26 0,30.12 0,30.12l17.68 0c0,0 0,-20.96 0,-36.33 0,-15.37 -8.71,-22.8 -20.88,-22.8 -12.17,0 -17.29,9.48 -17.29,9.48l0 -7.73 -17.04 0 0 57.38 17.04 0c0,0 0,-21.28 0,-30.12z"/>
   </g>
  </g>
  <g id="_105553162664992">
   <g>
    <path class="fil1 str0" d="M-2750.45 -975.28c-53.46,0 -96.8,-43.34 -96.8,-96.8"/>
    <path class="fil1 str0" d="M-2847.25 -1072.08c0,-53.46 43.34,-96.8 96.8,-96.8"/>
    <path class="fil1 str0" d="M-2750.45 -1168.88c53.46,0 96.8,43.34 96.8,96.8"/>
    <path class="fil1 str0" d="M-2653.65 -1072.08c0,53.46 -43.34,96.8 -96.8,96.8"/>
   </g>
   <path class="fil2" d="M-2750.45 -1122.26c-27.71,0 -50.18,22.47 -50.18,50.18 0,27.71 22.47,50.18 50.18,50.18 27.71,0 50.18,-22.47 50.18,-50.18 0,-27.71 -22.47,-50.18 -50.18,-50.18zm23.08 72.51l0 0c-1,1.51 -2.76,2.01 -4.26,1 -11.79,-7.27 -26.6,-8.78 -44.16,-4.76 -1.76,0.5 -3.26,-0.76 -3.76,-2.26 -0.51,-1.76 0.75,-3.26 2.25,-3.77 19.07,-4.26 35.63,-2.5 48.68,5.52 1.76,0.76 2.01,2.76 1.25,4.27zm6.02 -13.8l0 0c-1.25,1.76 -3.51,2.51 -5.26,1.26 -13.55,-8.28 -34.13,-10.79 -49.93,-5.78 -2.01,0.51 -4.27,-0.5 -4.77,-2.5 -0.5,-2.01 0.5,-4.27 2.51,-4.77 18.31,-5.52 40.9,-2.76 56.45,6.77 1.51,0.76 2.26,3.26 1,5.02zm0.51 -14.05l0 0c-16.06,-9.53 -42.91,-10.54 -58.21,-5.77 -2.51,0.75 -5.02,-0.75 -5.77,-3.01 -0.76,-2.51 0.75,-5.02 3.01,-5.77 17.81,-5.27 47.17,-4.27 65.73,6.77 2.26,1.26 3.01,4.27 1.76,6.53 -1.25,1.75 -4.27,2.5 -6.52,1.25z"/>
  </g>
  <g id="_105553162555008">
   <path class="fil1 str0" d="M-3404.81 -652.87c-53.46,0 -96.8,-43.34 -96.8,-96.8"/>
   <path class="fil1 str0" d="M-3501.61 -749.67c0,-53.46 43.34,-96.8 96.8,-96.8"/>
   <path class="fil1 str0" d="M-3404.81 -846.47c53.46,0 96.8,43.34 96.8,96.8"/>
   <path class="fil1 str0" d="M-3308.01 -749.67c0,53.46 -43.34,96.8 -96.8,96.8"/>
   <path class="fil2" d="M-3417.89 -697.79l20.89 0 0 -52.32 14.58 0 1.55 -17.52 -16.13 0c0,0 0,-6.54 0,-9.98 0,-4.13 0.83,-5.76 4.83,-5.76 3.21,0 11.3,0 11.3,0l0 -18.18c0,0 -11.92,0 -14.46,0 -15.55,0 -22.56,6.85 -22.56,19.95 0,11.42 0,13.97 0,13.97l-10.87 0 0 17.74 10.87 0 0 52.1z"/>
  </g>
  <g id="_105553162559744">
   <g>
    <path class="fil1 str0" d="M-4059.17 -330.46c-53.46,0 -96.8,-43.34 -96.8,-96.8"/>
    <path class="fil1 str0" d="M-4155.97 -427.26c0,-53.46 43.34,-96.8 96.8,-96.8"/>
    <path class="fil1 str0" d="M-4059.17 -524.06c53.46,0 96.8,43.34 96.8,96.8"/>
    <path class="fil1 str0" d="M-3962.37 -427.26c0,53.46 -43.34,96.8 -96.8,96.8"/>
   </g>
   <g>
    <path class="fil2" d="M-4059.17 -465.85c12.56,0 14.05,0.05 19.01,0.28 4.59,0.21 7.08,0.98 8.74,1.62 2.2,0.85 3.77,1.87 5.41,3.52 1.65,1.65 2.67,3.21 3.52,5.41 0.65,1.66 1.41,4.15 1.62,8.74 0.23,4.96 0.28,6.45 0.28,19.02 0,12.56 -0.05,14.05 -0.28,19.01 -0.21,4.59 -0.97,7.08 -1.62,8.74 -0.85,2.2 -1.87,3.77 -3.52,5.41 -1.64,1.65 -3.21,2.67 -5.41,3.52 -1.66,0.65 -4.15,1.41 -8.74,1.62 -4.96,0.23 -6.45,0.28 -19.01,0.28 -12.57,0 -14.06,-0.05 -19.02,-0.28 -4.59,-0.21 -7.08,-0.97 -8.74,-1.62 -2.19,-0.85 -3.76,-1.87 -5.41,-3.52 -1.65,-1.64 -2.67,-3.21 -3.52,-5.41 -0.64,-1.66 -1.41,-4.15 -1.62,-8.74 -0.23,-4.96 -0.27,-6.45 -0.27,-19.01 0,-12.57 0.04,-14.06 0.27,-19.02 0.21,-4.59 0.98,-7.08 1.62,-8.74 0.85,-2.2 1.87,-3.76 3.52,-5.41 1.65,-1.65 3.22,-2.67 5.41,-3.52 1.66,-0.64 4.15,-1.41 8.74,-1.62 4.96,-0.23 6.45,-0.28 19.02,-0.28zm0 -8.47l0 0c-12.78,0 -14.39,0.05 -19.41,0.28 -5.01,0.23 -8.43,1.02 -11.42,2.19 -3.09,1.2 -5.72,2.81 -8.34,5.42 -2.61,2.62 -4.22,5.25 -5.42,8.34 -1.17,2.99 -1.96,6.41 -2.19,11.42 -0.23,5.02 -0.28,6.63 -0.28,19.41 0,12.78 0.05,14.38 0.28,19.4 0.23,5.01 1.02,8.43 2.19,11.42 1.2,3.1 2.81,5.72 5.42,8.34 2.62,2.62 5.25,4.22 8.34,5.43 2.99,1.16 6.41,1.95 11.42,2.18 5.02,0.23 6.63,0.29 19.41,0.29 12.78,0 14.38,-0.06 19.4,-0.29 5.01,-0.23 8.43,-1.02 11.42,-2.18 3.1,-1.21 5.72,-2.81 8.34,-5.43 2.62,-2.62 4.22,-5.24 5.43,-8.34 1.16,-2.99 1.96,-6.41 2.18,-11.42 0.23,-5.02 0.29,-6.62 0.29,-19.4 0,-12.78 -0.06,-14.39 -0.29,-19.41 -0.22,-5.01 -1.02,-8.43 -2.18,-11.42 -1.21,-3.09 -2.81,-5.72 -5.43,-8.34 -2.62,-2.61 -5.24,-4.22 -8.34,-5.42 -2.99,-1.17 -6.41,-1.96 -11.42,-2.19 -5.02,-0.23 -6.62,-0.28 -19.4,-0.28z"/>
    <path class="fil2" d="M-4059.17 -451.43c-13.35,0 -24.17,10.82 -24.17,24.17 0,13.34 10.82,24.16 24.17,24.16 13.34,0 24.16,-10.82 24.16,-24.16 0,-13.35 -10.82,-24.17 -24.16,-24.17zm0 39.85l0 0c-8.67,0 -15.69,-7.02 -15.69,-15.68 0,-8.67 7.02,-15.69 15.69,-15.69 8.66,0 15.68,7.02 15.68,15.69 0,8.66 -7.02,15.68 -15.68,15.68z"/>
    <path class="fil2" d="M-4028.4 -452.38c0,3.11 -2.53,5.64 -5.65,5.64 -3.12,0 -5.65,-2.53 -5.65,-5.64 0,-3.12 2.53,-5.65 5.65,-5.65 3.12,0 5.65,2.53 5.65,5.65z"/>
   </g>
  </g>
  <g id="_105553162567392">
   <path class="fil1 str0" d="M-4059.17 -652.87c-53.46,0 -96.8,-43.34 -96.8,-96.8"/>
   <path class="fil1 str0" d="M-4155.97 -749.67c0,-53.46 43.34,-96.8 96.8,-96.8"/>
   <path class="fil1 str0" d="M-4059.17 -846.47c53.46,0 96.8,43.34 96.8,96.8"/>
   <path class="fil1 str0" d="M-3962.37 -749.67c0,53.46 -43.34,96.8 -96.8,96.8"/>
   <path class="fil2" d="M-4086.64 -741.7c1.34,0.55 2.54,0.03 2.93,-1.46 0.27,-1.03 0.91,-3.62 1.2,-4.7 0.39,-1.47 0.24,-1.98 -0.85,-3.26 -2.35,-2.78 -3.86,-6.39 -3.86,-11.49 0,-14.79 11.07,-28.04 28.83,-28.04 15.72,0 24.36,9.61 24.36,22.44 0,16.88 -7.47,31.13 -18.56,31.13 -6.13,0 -10.71,-5.06 -9.25,-11.27 1.77,-7.42 5.17,-15.43 5.17,-20.79 0,-4.79 -2.57,-8.79 -7.89,-8.79 -6.26,0 -11.29,6.48 -11.29,15.16 0,5.53 1.86,9.27 1.86,9.27 0,0 -6.4,27.15 -7.53,31.9 -2.24,9.47 -0.33,21.08 -0.17,22.25 0.09,0.7 0.99,0.86 1.39,0.34 0.58,-0.75 8.04,-9.96 10.57,-19.16 0.72,-2.61 4.12,-16.1 4.12,-16.1 2.03,3.89 7.98,7.3 14.3,7.3 18.83,0 31.59,-17.16 31.59,-40.13 0,-17.37 -14.7,-33.54 -37.06,-33.54 -27.82,0 -41.85,19.94 -41.85,36.58 0,10.07 3.81,19.03 11.99,22.36z"/>
  </g>
  <g id="_105553162563584">
   <g>
    <path class="fil1 str0" d="M-3077.63 -8.06c-53.46,0 -96.8,-43.34 -96.8,-96.8"/>
    <path class="fil1 str0" d="M-3174.43 -104.86c0,-53.46 43.34,-96.8 96.8,-96.8"/>
    <path class="fil1 str0" d="M-3077.63 -201.66c53.46,0 96.8,43.34 96.8,96.8"/>
    <path class="fil1 str0" d="M-2980.83 -104.86c0,53.46 -43.34,96.8 -96.8,96.8"/>
   </g>
   <g>
    <path class="fil2" d="M-3090.44 -74.21c2.6,-0.54 4.87,-1.55 6.79,-3.02 1.7,-1.28 3.12,-2.85 4.26,-4.73 1.78,-2.83 2.67,-6.02 2.67,-9.58 0,-3.45 -0.78,-6.39 -2.34,-8.81 -1.56,-2.42 -3.88,-4.18 -6.95,-5.3 2.02,-1.03 3.55,-2.17 4.59,-3.42 1.85,-2.23 2.78,-5.18 2.78,-8.85 0,-3.56 -0.92,-6.62 -2.76,-9.18 -3.05,-4.15 -8.24,-6.29 -15.57,-6.4l-29.05 0 0 60.1 27.08 0c3.05,0 5.89,-0.27 8.5,-0.81zm-23.59 -48.85l0 0 13.07 0c2.88,0 5.25,0.31 7.11,0.94 2.15,0.9 3.23,2.74 3.23,5.54 0,2.53 -0.82,4.29 -2.45,5.28 -1.62,1 -3.74,1.49 -6.35,1.49l-14.61 0 0 -13.25zm0 39.22l0 0 0 -16.02 14.79 0c2.59,0.03 4.58,0.37 6.01,1.02 2.55,1.17 3.83,3.32 3.83,6.44 0,3.7 -1.32,6.2 -3.95,7.51 -1.45,0.7 -3.48,1.05 -6.09,1.05l-14.59 0z"/>
    <g>
     <path class="fil2" d="M-3066.54 -77.36c4.52,3.65 9.74,5.47 15.65,5.47 7.17,0 12.74,-2.16 16.72,-6.48 2.56,-2.72 4,-5.4 4.31,-8.03l-11.87 0c-0.69,1.3 -1.48,2.32 -2.39,3.05 -1.65,1.36 -3.8,2.04 -6.45,2.04 -2.5,0 -4.63,-0.55 -6.4,-1.67 -2.92,-1.79 -4.47,-4.92 -4.65,-9.38l32.36 0c0.06,-3.84 -0.07,-6.78 -0.38,-8.82 -0.54,-3.48 -1.72,-6.55 -3.54,-9.18 -2.01,-3 -4.58,-5.19 -7.68,-6.58 -3.1,-1.39 -6.58,-2.08 -10.45,-2.08 -6.51,0 -11.81,2.05 -15.89,6.16 -4.08,4.11 -6.12,10.01 -6.12,17.71 0,8.22 2.26,14.15 6.78,17.79zm8.3 -29.54l0 0c1.64,-1.69 3.95,-2.54 6.93,-2.54 2.75,0 5.05,0.8 6.9,2.39 1.85,1.6 2.88,3.95 3.09,7.03l-20.02 0c0.42,-2.9 1.46,-5.19 3.1,-6.88z"/>
     <polygon class="fil2" points="-3039.01,-130.04 -3065.13,-130.04 -3065.13,-123.98 -3039.01,-123.98 "/>
    </g>
   </g>
  </g>
  <g id="_105553162562592">
   <g>
    <path class="fil1 str0" d="M-3404.81 -8.06c-53.46,0 -96.8,-43.34 -96.8,-96.8"/>
    <path class="fil1 str0" d="M-3501.61 -104.86c0,-53.46 43.34,-96.8 96.8,-96.8"/>
    <path class="fil1 str0" d="M-3404.81 -201.66c53.46,0 96.8,43.34 96.8,96.8"/>
    <path class="fil1 str0" d="M-3308.01 -104.86c0,53.46 -43.34,96.8 -96.8,96.8"/>
   </g>
   <path class="fil2" d="M-3424.07 -79.48c0,4.45 0.46,7.84 1.39,10.18 0.93,2.34 2.61,4.55 5.02,6.63 2.41,2.08 5.33,3.68 8.75,4.8 3.42,1.12 7.34,1.68 11.79,1.68 3.92,0 7.56,-0.39 10.93,-1.17 3.37,-0.79 7.14,-2.16 11.3,-4.12l0 -15.31c-4.88,3.21 -9.78,4.81 -14.71,4.81 -2.77,0 -5.24,-0.64 -7.39,-1.94 -1.62,-0.95 -2.73,-2.23 -3.33,-3.84 -0.6,-1.6 -0.9,-5.22 -0.9,-10.86l0 -24.97 23.12 0 0 -15.28 -23.12 0 0 -24.66 -13.78 0c-0.63,5.02 -1.76,9.15 -3.4,12.4 -1.64,3.24 -3.82,6.02 -6.54,8.34 -2.72,2.31 -5.98,4.09 -9.79,5.33l0 13.87 10.66 0 0 34.11z"/>
  </g>
  <g id="_105553162783648">
   <g>
    <path class="fil1 str0" d="M-3077.63 -330.46c-53.46,0 -96.8,-43.34 -96.8,-96.8"/>
    <path class="fil1 str0" d="M-3174.43 -427.26c0,-53.46 43.34,-96.8 96.8,-96.8"/>
    <path class="fil1 str0" d="M-3077.63 -524.06c53.46,0 96.8,43.34 96.8,96.8"/>
    <path class="fil1 str0" d="M-2980.83 -427.26c0,53.46 -43.34,96.8 -96.8,96.8"/>
   </g>
   <path class="fil4" d="M-3027.89 -404.16l0 -0.02c-0.03,-0.03 -0.05,-0.03 -0.1,-0.07 0,0 0,0 -0.02,0 -1.21,-0.77 -2.45,-0.89 -3.22,-1.17 -0.02,0 -0.05,0 -0.05,-0.02 -5.27,-1.66 -9.81,-5.25 -13.22,-9.63 -1.89,-2.45 -3.47,-5.09 -4.52,-7.91 0,-0.03 0,-0.03 0,-0.05 -0.42,-1.21 -0.45,-2.56 0.16,-3.38 0,0 0.02,0 0.02,-0.02 0.96,-1.36 2.71,-2.22 4.55,-2.9 0.02,0 0.02,0 0.02,0 2.08,-0.72 4.32,-1.53 6.16,-3.17 0.02,0 0.02,-0.02 0.05,-0.02 0.28,-0.26 0.63,-0.61 0.88,-1.14 0.05,-0.12 0.12,-0.26 0.14,-0.42 0.14,-0.49 0.14,-1.1 -0.11,-1.61 0,-0.03 0,-0.03 0,-0.03 -0.54,-1.07 -1.45,-1.65 -2.15,-2.05l-0.02 0c-1.14,-0.67 -2.5,-0.72 -3.69,-0.32l-0.02 0c-1.26,0.37 -2.31,0.83 -3.27,0.95 -0.02,0 -0.04,0 -0.07,0.03 -1.35,0.23 -2.68,0.28 -3.7,-0.1 -0.03,-0.14 -0.03,-0.44 -0.07,-0.81l0.02 0c-0.09,-2.24 0.12,-4.55 0.14,-6.96 0,0 0,0 0,-0.02 0.12,-3.64 0.26,-7.37 -0.28,-11.15 0,-0.02 0,-0.04 0,-0.04 -1.19,-6.37 -5.27,-11.85 -10.45,-15.49 -3.75,-2.66 -8.23,-4.13 -12.78,-4.55 -1.56,-0.14 -3.08,-0.18 -4.6,-0.18 -6.13,0.04 -12.5,1.65 -17.46,5.55 -3.73,2.91 -6.67,6.78 -8.52,11.1l0 0.02c-1.77,4.43 -1.61,9.17 -1.37,13.55 0.14,3.08 0.49,6.07 0.21,8.91 -0.03,0.1 -0.03,0.14 -0.05,0.19 -1.38,0.26 -2.89,0.16 -4.38,-0.12l-0.03 0c-1.02,-0.16 -2.12,-0.58 -3.36,-0.93 -0.02,0 -0.04,0 -0.07,-0.02 -1.19,-0.26 -2.37,0.07 -3.26,0.74 -0.03,0 -0.05,0 -0.05,0.03 -0.02,0.02 -0.04,0.02 -0.04,0.04 -0.75,0.47 -1.75,1.29 -1.8,2.68 -0.02,0.1 0,0.17 0,0.26 0.02,0 0,0.02 0.02,0.02 0.14,0.82 0.66,1.43 1.12,1.82 0.47,0.4 0.89,0.66 1.15,0.87 0.02,0 0.04,0.02 0.07,0.04 2.23,1.5 4.71,2.15 6.88,2.99 1.49,0.65 2.77,1.65 3.07,2.94 0.38,1.61 -0.32,3.47 -1.21,5.27l0 0.02c-2.42,4.76 -6.02,8.91 -10.45,11.96 -2.33,1.59 -4.94,2.78 -7.67,3.5 -0.02,0 -0.07,0.03 -0.12,0.05 -0.56,0.21 -1.89,0.33 -2.73,1.59 -0.04,0.09 -0.09,0.18 -0.14,0.3 -0.28,0.79 0.05,1.66 0.45,2.15 0.37,0.44 0.79,0.72 1.16,0.91 0.03,0 0.05,0.02 0.07,0.02 2.29,1.33 4.81,1.89 7.09,2.47 0.03,0 0.03,0.02 0.03,0.02 1.65,0.35 3.19,0.56 4.43,1.1 0.04,0.09 0.18,0.51 0.46,1.21 0.42,1.26 0.61,2.73 1.08,4.29 0.14,0.42 0.51,0.77 0.95,0.87 1.05,0.23 1.61,-0.12 1.71,-0.14 0.04,0 0.09,0 0.14,0 3.82,-0.68 7.67,-1.26 11.19,-0.4 3.69,0.98 6.9,3.52 10.52,5.69l0 0.03c2.4,1.49 5.18,2.96 8.4,3.07 0,0 0,0 0.02,0 2.43,0.14 4.78,-0.02 7.11,-0.16 0.03,0 0.03,0 0.05,0 1.98,-0.19 3.89,-0.86 5.6,-1.91 0.02,-0.03 0.04,-0.05 0.07,-0.05 3.8,-2.17 7.16,-4.76 10.87,-6.39l0.02 0c1.19,-0.42 2.7,-0.4 4.36,-0.51 0.02,0 0.05,0 0.05,0 3.08,-0.1 6.13,0.07 9.19,0.47 0.09,0.02 0.21,0.02 0.3,0 0.42,-0.05 0.84,-0.33 1.05,-0.59 0.23,-0.25 0.28,-0.49 0.32,-0.65 0.1,-0.3 0.17,-0.44 0.03,-0.19 0.05,-0.09 0.09,-0.16 0.12,-0.25 0.56,-1.85 0.86,-3.5 1.77,-4.53 0.39,-0.4 1.1,-0.58 1.89,-0.58 0.04,0 0.11,0 0.16,0 2.66,-0.31 5.04,-1.26 7.3,-2.06 0.03,-0.02 0.07,-0.02 0.09,-0.02 0.84,-0.37 2.1,-0.79 2.97,-1.98 0,0 0,0 0,-0.02 0.72,-1.01 0.37,-2.38 -0.63,-2.99z"/>
  </g>
  <g id="_105553162769856">
   <path class="fil1 str0" d="M-3077.63 -975.28c-53.46,0 -96.8,-43.34 -96.8,-96.8"/>
   <path class="fil1 str0" d="M-3174.43 -1072.08c0,-53.46 43.34,-96.8 96.8,-96.8"/>
   <path class="fil1 str0" d="M-3077.63 -1168.88c53.46,0 96.8,43.34 96.8,96.8"/>
   <path class="fil1 str0" d="M-2980.83 -1072.08c0,53.46 -43.34,96.8 -96.8,96.8"/>
   <path class="fil2" d="M-3043.14 -1114.19c-13.5,-0.43 -22.64,7.19 -27.42,22.86 2.47,-1.06 4.87,-1.59 7.2,-1.59 4.95,0 7.14,2.78 6.56,8.35 -0.29,3.36 -2.48,8.26 -6.56,14.7 -4.08,6.44 -7.14,9.66 -9.18,9.66 -2.62,0 -5.02,-4.96 -7.21,-14.89 -0.73,-2.91 -2.04,-10.35 -3.93,-22.32 -1.76,-11.09 -6.42,-16.27 -13.99,-15.54 -3.21,0.29 -8.02,3.21 -14.43,8.74 -4.67,4.23 -9.4,8.46 -14.21,12.68l4.58 5.9c4.37,-3.05 6.92,-4.59 7.64,-4.59 3.35,0 6.47,5.25 9.38,15.73 2.62,9.61 5.24,19.21 7.86,28.82 3.92,10.49 8.72,15.72 14.4,15.72 9.16,0 20.36,-8.6 33.6,-25.81 12.79,-16.48 19.42,-29.46 19.85,-38.94 0.57,-12.69 -4.14,-19.18 -14.14,-19.48z"/>
  </g>
  <g id="_105553162739456">
   <g>
    <path class="fil1 str3" d="M32 62c-16.57,0 -30,-13.43 -30,-30"/>
    <path class="fil1 str3" d="M2 32c0,-16.57 13.43,-30 30,-30"/>
    <path class="fil1 str3" d="M32 2c16.57,0 30,13.43 30,30"/>
    <path class="fil1 str3" d="M62 32c0,16.57 -13.43,30 -30,30"/>
   </g>
   <g>
    <path class="fil5 str4" d="M50.15 30.55c-0.23,-9.32 -7.91,-16.8 -17.36,-16.8 -9.33,0 -16.94,7.31 -17.35,16.48 -0.01,0.25 -0.02,0.51 -0.02,0.76 0,3.26 0.91,6.3 2.49,8.9l-3.13 9.25 9.62 -3.06c2.49,1.36 5.35,2.15 8.39,2.15 9.6,0 17.37,-7.72 17.37,-17.24 0,-0.15 0,-0.3 -0.01,-0.44zm-17.36 14.93l0 0c-2.97,0 -5.72,-0.88 -8.03,-2.4l-5.61 1.79 1.82 -5.39c-1.75,-2.39 -2.78,-5.32 -2.78,-8.49 0,-0.47 0.02,-0.95 0.07,-1.41 0.72,-7.33 6.96,-13.08 14.53,-13.08 7.67,0 13.97,5.89 14.56,13.36 0.03,0.37 0.05,0.75 0.05,1.13 0,7.99 -6.56,14.49 -14.61,14.49z"/>
    <path class="fil5 str4" d="M40.75 34.47c-0.43,-0.21 -2.52,-1.24 -2.91,-1.38 -0.39,-0.14 -0.67,-0.21 -0.96,0.21 -0.28,0.43 -1.1,1.38 -1.35,1.66 -0.25,0.28 -0.49,0.31 -0.92,0.1 -0.43,-0.21 -1.8,-0.65 -3.43,-2.1 -1.26,-1.11 -2.12,-2.49 -2.36,-2.92 -0.25,-0.42 -0.03,-0.65 0.18,-0.86 0.2,-0.19 0.43,-0.49 0.65,-0.74 0.05,-0.07 0.1,-0.14 0.15,-0.2 0.1,-0.16 0.17,-0.3 0.27,-0.51 0.14,-0.28 0.07,-0.52 -0.03,-0.74 -0.11,-0.21 -0.96,-2.29 -1.32,-3.13 -0.35,-0.85 -0.71,-0.7 -0.96,-0.7 -0.24,0 -0.53,-0.04 -0.81,-0.04 -0.29,0 -0.75,0.1 -1.14,0.52 -0.39,0.43 -1.49,1.45 -1.49,3.53 0,0.49 0.09,0.98 0.22,1.44 0.43,1.49 1.36,2.72 1.52,2.93 0.21,0.28 2.94,4.68 7.27,6.38 4.33,1.69 4.33,1.12 5.11,1.05 0.78,-0.06 2.52,-1.01 2.87,-2.01 0.36,-0.98 0.36,-1.83 0.26,-2 -0.11,-0.18 -0.4,-0.28 -0.82,-0.49z"/>
   </g>
  </g>
  <g id="_105553162825728">
   <path class="fil1 str0" d="M-4059.17 -975.28c-53.46,0 -96.8,-43.34 -96.8,-96.8"/>
   <path class="fil1 str0" d="M-4155.97 -1072.08c0,-53.46 43.34,-96.8 96.8,-96.8"/>
   <path class="fil1 str0" d="M-4059.17 -1168.88c53.46,0 96.8,43.34 96.8,96.8"/>
   <path class="fil1 str0" d="M-3962.37 -1072.08c0,53.46 -43.34,96.8 -96.8,96.8"/>
   <g>
    <g>
     <path class="fil2" d="M-4046.67 -1082.95c1.59,0 3.78,-0.82 6.05,-3.51l0 3.1 5.23 0 0 -28.13 -5.23 0 0 21.35c-0.64,0.8 -2.05,2.11 -3.07,2.11 -1.13,0 -1.4,-0.76 -1.4,-1.89l0 -21.57 -5.23 0 0 23.51c0,2.78 0.85,5.03 3.65,5.03z"/>
     <path class="fil2" d="M-4069.94 -1090.38c0,4.96 2.59,7.55 7.66,7.55 4.21,0 7.52,-2.82 7.52,-7.55l0 -13.78c0,-4.41 -3.28,-7.56 -7.52,-7.56 -4.61,0 -7.66,3.04 -7.66,7.56l0 13.78zm5.38 -13.32l0 0c0,-1.54 0.71,-2.69 2.18,-2.69 1.6,0 2.29,1.11 2.29,2.69l0 13.09c0,1.53 -0.78,2.66 -2.19,2.66 -1.44,0 -2.28,-1.18 -2.28,-2.66l0 -13.09z"/>
     <polygon class="fil2" points="-4082.43,-1083.36 -4076.53,-1083.36 -4076.53,-1098.83 -4069.68,-1121.5 -4075.66,-1121.5 -4079.44,-1106.25 -4083.5,-1121.5 -4089.43,-1121.5 -4082.43,-1098.83 "/>
    </g>
    <g>
     <path class="fil2" d="M-4028.34 -1076.96l-61.66 0c-6.63,0 -12,5.38 -12,12l0 30.3c0,6.63 5.37,12 12,12l61.66 0c6.62,0 11.99,-5.37 11.99,-12l0 -30.3c0,-6.62 -5.37,-12 -11.99,-12zm-53.45 45.32l0 0 -5.6 0 0 -31.05 -5.81 0 0 -5.28 17.22 0 0 5.28 -5.81 0 0 31.05zm19.96 0l0 0 -4.98 0 0 -2.96c-0.92,1.09 -1.88,1.92 -2.87,2.49 -2.68,1.54 -6.37,1.51 -6.37,-3.93l0 -22.39 4.98 0 0 20.53c0,1.08 0.27,1.81 1.33,1.81 0.97,0 2.32,-1.24 2.93,-2.01l0 -20.33 4.98 0 0 26.79zm19.18 -5.55l0 0c0,3.31 -1.24,5.89 -4.56,5.89 -1.82,0 -3.34,-0.67 -4.73,-2.4l0 2.06 -5.03 0 0 -36.33 5.03 0 0 11.7c1.12,-1.37 2.65,-2.5 4.43,-2.5 3.65,0 4.86,3.08 4.86,6.71l0 14.87zm18.41 -7.22l0 0 -9.53 0 0 5.06c0,2.01 0.17,3.74 2.18,3.74 2.1,0 2.23,-1.41 2.23,-3.74l0 -1.87 5.12 0 0 2.02c0,5.16 -2.22,8.29 -7.46,8.29 -4.76,0 -7.19,-3.47 -7.19,-8.29l0 -12.03c0,-4.66 3.07,-7.88 7.56,-7.88 4.78,0 7.09,3.03 7.09,7.88l0 6.82z"/>
     <path class="fil2" d="M-4031.54 -1054.42c-1.85,0 -2.23,1.3 -2.23,3.14l0 2.71 4.41 0 0 -2.71c0,-1.82 -0.39,-3.14 -2.18,-3.14z"/>
     <path class="fil2" d="M-4050.91 -1054.26c-0.35,0.18 -0.69,0.45 -1.03,0.82l0 16.7c0.41,0.43 0.8,0.75 1.18,0.94 0.81,0.41 2,0.45 2.54,-0.27 0.3,-0.38 0.44,-0.99 0.44,-1.85l0 -13.84c0,-0.9 -0.18,-1.59 -0.53,-2.05 -0.6,-0.8 -1.73,-0.89 -2.6,-0.45z"/>
    </g>
   </g>
  </g>
  <g id="_105553163998752">
   <g>
    <path class="fil1 str0" d="M-3404.81 314.35c-53.46,0 -96.8,-43.34 -96.8,-96.8"/>
    <path class="fil1 str0" d="M-3501.61 217.55c0,-53.46 43.34,-96.8 96.8,-96.8"/>
    <path class="fil1 str0" d="M-3404.81 120.75c53.46,0 96.8,43.34 96.8,96.8"/>
    <path class="fil1 str0" d="M-3308.01 217.55c0,53.46 -43.34,96.8 -96.8,96.8"/>
   </g>
   <g>
    <path class="fil2" d="M-3376.56 177.28c-4.39,-5.01 -12.33,-7.16 -22.49,-7.16l-29.48 0c-2.07,0 -3.84,1.51 -4.17,3.56l-12.27 77.85c-0.24,1.54 0.95,2.93 2.5,2.93l18.2 0 4.57 -28.99 -0.14 0.9c0.32,-2.05 2.08,-3.56 4.15,-3.56l8.65 0c16.99,0 30.29,-6.9 34.18,-26.86 0.12,-0.59 0.3,-1.73 0.3,-1.73 1.1,-7.38 -0.01,-12.4 -4,-16.94z"/>
    <path class="fil2" d="M-3367.95 198c-4.23,19.66 -17.71,30.06 -39.09,30.06l-7.75 0 -5.79 36.92 12.58 0c1.82,0 3.36,-1.32 3.65,-3.11l0.15 -0.78 2.89 -18.33 0.18 -1.01c0.29,-1.79 1.83,-3.12 3.65,-3.12l2.29 0c14.87,0 26.5,-6.04 29.9,-23.5 1.37,-7 0.71,-12.88 -2.66,-17.13z"/>
   </g>
  </g>
  <g id="_105553162804320">
   <g>
    <path class="fil1 str0" d="M-3077.63 -652.87c-53.46,0 -96.8,-43.34 -96.8,-96.8"/>
    <path class="fil1 str0" d="M-3174.43 -749.67c0,-53.46 43.34,-96.8 96.8,-96.8"/>
    <path class="fil1 str0" d="M-3077.63 -846.47c53.46,0 96.8,43.34 96.8,96.8"/>
    <path class="fil1 str0" d="M-2980.83 -749.67c0,53.46 -43.34,96.8 -96.8,96.8"/>
   </g>
   <g>
    <g>
     <path class="fil2" d="M-3135.68 -748.14c-0.04,-0.3 -0.26,-0.51 -0.52,-0.51 -0.27,0 -0.48,0.22 -0.52,0.51l-1.23 11.22 1.23 10.97c0.03,0.29 0.25,0.5 0.52,0.5 0.26,0 0.48,-0.2 0.52,-0.5l1.39 -10.97 -1.39 -11.22z"/>
     <path class="fil2" d="M-3116.33 -758.49c-0.5,0 -0.92,0.41 -0.94,0.94l-0.98 20.64 0.98 13.34c0.02,0.52 0.44,0.93 0.94,0.93 0.5,0 0.92,-0.41 0.95,-0.94l0 0.01 1.1 -13.34 -1.1 -20.64c-0.03,-0.53 -0.45,-0.94 -0.95,-0.94z"/>
     <path class="fil2" d="M-3126.35 -751.32c-0.38,0 -0.7,0.31 -0.73,0.72l-1.1 13.68 1.1 13.23c0.03,0.41 0.35,0.72 0.73,0.72 0.39,0 0.7,-0.31 0.74,-0.72l1.25 -13.23 -1.25 -13.68c-0.04,-0.41 -0.35,-0.72 -0.74,-0.72z"/>
     <path class="fil2" d="M-3106.15 -722.64c0.62,0 1.13,-0.51 1.16,-1.15l0.96 -13.12 -0.96 -27.48c-0.03,-0.64 -0.54,-1.15 -1.16,-1.15 -0.63,0 -1.14,0.51 -1.16,1.15l-0.85 27.48 0.85 13.12c0.02,0.64 0.53,1.15 1.16,1.15z"/>
     <path class="fil2" d="M-3085.32 -722.58c0.86,0 1.57,-0.71 1.59,-1.58l0 0.01 0 -0.01 0.67 -12.74 -0.67 -31.74c-0.02,-0.87 -0.73,-1.57 -1.59,-1.57 -0.86,0 -1.57,0.7 -1.58,1.57l-0.6 31.73c0,0.02 0.6,12.76 0.6,12.76 0.01,0.86 0.72,1.57 1.58,1.57z"/>
     <path class="fil2" d="M-3095.81 -722.63c0.75,0 1.35,-0.6 1.37,-1.37l0 0.01 0.81 -12.91 -0.81 -27.68c-0.02,-0.77 -0.63,-1.37 -1.37,-1.37 -0.76,0 -1.36,0.6 -1.38,1.37l-0.72 27.68 0.72 12.91c0.02,0.76 0.62,1.36 1.38,1.36z"/>
    </g>
    <path class="fil2" d="M-3032.68 -753.28c-2.1,0 -4.11,0.43 -5.94,1.19 -1.22,-13.85 -12.84,-24.71 -27,-24.71 -3.47,0 -6.85,0.68 -9.83,1.84 -1.16,0.45 -1.47,0.91 -1.48,1.81l0 48.76c0.01,0.94 0.74,1.73 1.66,1.82 0.04,0 42.32,0.02 42.59,0.02 8.49,0 15.37,-6.88 15.37,-15.36 0,-8.49 -6.88,-15.37 -15.37,-15.37z"/>
   </g>
  </g>
  <g id="_105553162834592">
   <g>
    <path class="fil1 str0" d="M-2750.45 314.35c-53.46,0 -96.8,-43.34 -96.8,-96.8"/>
    <path class="fil1 str0" d="M-2847.25 217.55c0,-53.46 43.34,-96.8 96.8,-96.8"/>
    <path class="fil1 str0" d="M-2750.45 120.75c53.46,0 96.8,43.34 96.8,96.8"/>
    <path class="fil1 str0" d="M-2653.65 217.55c0,53.46 -43.34,96.8 -96.8,96.8"/>
   </g>
   <g>
    <path class="fil2" d="M-2777.9 195.97c-11.09,0 -20.24,8.14 -21.68,18.68 -0.13,0.95 -0.2,1.92 -0.2,2.9 0,11.92 9.8,21.58 21.88,21.58 12.09,0 21.88,-9.66 21.88,-21.58 0,-3.22 -0.71,-6.27 -1.99,-9.01 -3.47,-7.42 -11.07,-12.57 -19.89,-12.57z"/>
    <path class="fil2" d="M-2701.2 215.84c-0.88,-11.12 -10.3,-19.87 -21.8,-19.87 -8.89,0 -16.53,5.23 -19.95,12.74 -1.23,2.7 -1.93,5.69 -1.93,8.84 0,11.92 9.8,21.58 21.88,21.58 12.09,0 21.88,-9.66 21.88,-21.58 0,-0.57 -0.03,-1.14 -0.08,-1.71z"/>
   </g>
  </g>
  <g id="_105553162830592">
   <g>
    <path class="fil1 str0" d="M-2750.45 -330.46c-53.46,0 -96.8,-43.34 -96.8,-96.8"/>
    <path class="fil1 str0" d="M-2847.25 -427.26c0,-53.46 43.34,-96.8 96.8,-96.8"/>
    <path class="fil1 str0" d="M-2750.45 -524.06c53.46,0 96.8,43.34 96.8,96.8"/>
    <path class="fil1 str0" d="M-2653.65 -427.26c0,53.46 -43.34,96.8 -96.8,96.8"/>
   </g>
   <g>
    <path class="fil2" d="M-2788.53 -472.6l0 16.74c17.76,0.07 34.46,7.02 47.03,19.6 12.59,12.59 19.55,29.32 19.6,47.13l16.73 0c-0.11,-46.01 -37.36,-83.31 -83.36,-83.47z"/>
    <path class="fil2" d="M-2777.23 -411.72c-6.24,0 -11.3,5.06 -11.3,11.29 0,6.24 5.06,11.3 11.3,11.3 6.24,0 11.29,-5.06 11.29,-11.3 0,-6.23 -5.05,-11.29 -11.29,-11.29z"/>
    <path class="fil2" d="M-2788.53 -444.15l0 16.74c21.02,0.21 38.07,17.26 38.29,38.28l16.73 0c-0.22,-30.29 -24.73,-54.8 -55.02,-55.02z"/>
   </g>
  </g>
  <g id="_105553162839360">
   <g>
    <path class="fil1 str0" d="M-2750.45 -652.87c-53.46,0 -96.8,-43.34 -96.8,-96.8"/>
    <path class="fil1 str0" d="M-2847.25 -749.67c0,-53.46 43.34,-96.8 96.8,-96.8"/>
    <path class="fil1 str0" d="M-2750.45 -846.47c53.46,0 96.8,43.34 96.8,96.8"/>
    <path class="fil1 str0" d="M-2653.65 -749.67c0,53.46 -43.34,96.8 -96.8,96.8"/>
   </g>
   <path class="fil2" d="M-2717.34 -789.93c-2.89,0.94 -9.05,6.95 -1.23,17.67 7.8,10.72 3.18,22.93 3.18,22.93l-6.8 22.59 -17.14 -50.97c0,0 4.84,-0.36 5.53,-0.47 0.69,-0.1 1.84,-0.78 1.65,-2.23 -0.19,-1.45 -1.25,-1.66 -2.27,-1.61 -0.5,0.03 -6.48,0.48 -12.41,0.48 -5.9,0 -11.76,-0.45 -12.17,-0.48 -0.85,-0.04 -2.05,0.05 -2.34,1.37 -0.21,1.09 0.31,2.32 1.49,2.45 1.19,0.14 0.4,0.04 5.19,0.49 0,0 3.26,8.92 7.38,20.21l-10.44 30.97 -17.19 -51.18c0,0 4.84,-0.36 5.53,-0.47 0.7,-0.1 1.85,-0.78 1.65,-2.23 -0.19,-1.45 -1.25,-1.66 -2.26,-1.61 -0.51,0.03 -6.49,0.48 -12.42,0.48 -5.9,0 -11.76,-0.45 -12.17,-0.48 -0.84,-0.04 -2.05,0.05 -2.34,1.36 -0.21,1.1 0.32,2.33 1.5,2.46 1.19,0.14 0.39,0.04 5.18,0.48 0,0 22.88,62.65 24.09,66.01 1.21,3.36 6.24,4.24 7.67,-0.16 1.05,-3.25 9.28,-27.12 13.5,-39.35 6.39,17.54 13.73,37.64 14.41,39.51 1.21,3.36 6.23,4.24 7.66,-0.16 1.43,-4.4 9.53,-27.08 16.47,-47.39 6.14,-18.51 0.44,-34.36 -10.9,-30.67z"/>
  </g>
  <g id="_105553162757920">
   <path class="fil1 str0" d="M-3404.81 -975.28c-53.46,0 -96.8,-43.34 -96.8,-96.8"/>
   <path class="fil1 str0" d="M-3501.61 -1072.08c0,-53.46 43.34,-96.8 96.8,-96.8"/>
   <path class="fil1 str0" d="M-3404.81 -1168.88c53.46,0 96.8,43.34 96.8,96.8"/>
   <path class="fil1 str0" d="M-3308.01 -1072.08c0,53.46 -43.34,96.8 -96.8,96.8"/>
   <g>
    <g>
     <g>
      <path class="fil2" d="M-3404.81 -1129.68c-31.81,0 -57.6,25.79 -57.6,57.6 0,31.81 25.79,57.6 57.6,57.6 31.81,0 57.6,-25.79 57.6,-57.6 0,-31.81 -25.79,-57.6 -57.6,-57.6zm0 10.02l0 0c10.92,0 20.96,3.73 29.01,9.95 -5.79,7.45 -13.77,13.35 -23.94,17.66 -4.87,-8.94 -10.45,-17.65 -16.74,-26.1 3.74,-0.95 7.64,-1.51 11.67,-1.51zm-21.47 5.17l0 0c6.39,8.37 12.05,16.99 16.98,25.83 -11.67,3.44 -25.59,5.2 -41.69,5.31 3.33,-13.61 12.49,-24.92 24.71,-31.14zm-26.11 42.41l0 0c0,-0.41 0.05,-0.82 0.06,-1.23 18.47,-0.02 34.41,-2.15 47.76,-6.35 1.12,2.28 2.19,4.57 3.21,6.88 -16.22,5.07 -29.58,15.46 -40.01,31.1 -6.87,-8.25 -11.02,-18.85 -11.02,-30.4zm47.58 47.58l0 0c-11.01,0 -21.13,-3.79 -29.2,-10.09 9.45,-14.83 21.52,-24.48 36.46,-28.93 4.45,11.62 7.73,23.57 9.82,35.81 -5.32,2.05 -11.06,3.21 -17.08,3.21zm26.41 -8.03l0 0c-2.1,-11.29 -5.19,-22.33 -9.22,-33.1 9.01,-1.27 18.92,-0.95 29.76,0.94 -2.1,13.37 -9.73,24.92 -20.54,32.16zm-13.06 -42.58l0 0c-1.16,-2.71 -2.38,-5.4 -3.68,-8.07 11.09,-4.8 20,-11.32 26.64,-19.59 6.47,7.65 10.54,17.37 11.14,28.01 -12.36,-2.03 -23.73,-2.14 -34.1,-0.35z"/>
     </g>
    </g>
   </g>
  </g>
  <g id="_105553162755904">
   <path class="fil1 str0" d="M-3731.99 -8.06c-53.46,0 -96.8,-43.34 -96.8,-96.8"/>
   <path class="fil1 str0" d="M-3828.79 -104.86c0,-53.46 43.34,-96.8 96.8,-96.8"/>
   <path class="fil1 str0" d="M-3731.99 -201.66c53.46,0 96.8,43.34 96.8,96.8"/>
   <path class="fil1 str0" d="M-3635.19 -104.86c0,53.46 -43.34,96.8 -96.8,96.8"/>
   <polygon class="fil2" points="-3717.65,-112.91 -3731.99,-128.24 -3741.68,-138.6 -3795.5,-80.13 -3746.33,-96.8 -3731.99,-81.47 -3722.3,-71.11 -3668.49,-129.59 "/>
  </g>
  <g id="_105553162711744">
   <path class="fil1 str5" d="M83.01 -124.55c-16.57,0 -30,-13.43 -30,-30"/>
   <path class="fil1 str5" d="M53.01 -154.55c0,-16.57 13.43,-30 30,-30"/>
   <path class="fil1 str5" d="M83.01 -184.55c16.57,0 30,13.43 30,30"/>
   <path class="fil1 str5" d="M113.01 -154.55c0,16.57 -13.43,30 -30,30"/>
   <g>
    <path class="fil6 str6" d="M95.89 -149.01c-0.72,-0.35 -4.18,-2.05 -4.82,-2.27 -0.65,-0.25 -1.12,-0.35 -1.59,0.35 -0.47,0.69 -1.83,2.27 -2.23,2.73 -0.42,0.47 -0.82,0.52 -1.54,0.17 -0.7,-0.35 -2.97,-1.08 -5.66,-3.47 -2.09,-1.84 -3.51,-4.13 -3.92,-4.83 -0.4,-0.7 -0.04,-1.08 0.31,-1.43 0.33,-0.32 0.7,-0.82 1.07,-1.22 0.09,-0.12 0.17,-0.23 0.25,-0.34 0.16,-0.25 0.28,-0.49 0.45,-0.83 0.24,-0.47 0.12,-0.88 -0.06,-1.22 -0.17,-0.36 -1.59,-3.8 -2.18,-5.2 -0.58,-1.4 -1.17,-1.16 -1.58,-1.16 -0.41,0 -0.88,-0.06 -1.35,-0.06 -0.47,0 -1.24,0.17 -1.88,0.87 -0.65,0.7 -2.47,2.4 -2.47,5.84 0,0.81 0.15,1.62 0.37,2.38 0.71,2.46 2.24,4.5 2.51,4.85 0.35,0.45 4.87,7.74 12.03,10.56 7.17,2.78 7.17,1.85 8.46,1.73 1.3,-0.11 4.18,-1.68 4.75,-3.32 0.6,-1.63 0.6,-3.03 0.42,-3.32 -0.17,-0.29 -0.65,-0.46 -1.34,-0.81z"/>
   </g>
  </g>
  <g id="_105553162536224">
   <path class="fil1 str0" d="M-3731.99 -652.87c-53.46,0 -96.8,-43.34 -96.8,-96.8"/>
   <path class="fil1 str0" d="M-3828.79 -749.67c0,-53.46 43.34,-96.8 96.8,-96.8"/>
   <path class="fil1 str0" d="M-3731.99 -846.47c53.46,0 96.8,43.34 96.8,96.8"/>
   <path class="fil1 str0" d="M-3635.19 -749.67c0,53.46 -43.34,96.8 -96.8,96.8"/>
   <g>
    <path class="fil2" d="M-3704.67 -767.97l-54.65 0c-1.21,0 -2.2,0.98 -2.2,2.2l0 45.83c0,1.22 0.99,2.2 2.2,2.2l9.75 0 0 15.45c0,3.58 2.9,6.49 6.48,6.49 3.59,0 6.49,-2.91 6.49,-6.49l0 -15.45 9.08 0 0 15.45c0,3.58 2.9,6.49 6.49,6.49 3.58,0 6.49,-2.91 6.49,-6.49l0 -15.45 9.87 0c1.22,0 2.21,-0.98 2.21,-2.2l0 -45.83c0,-1.22 -0.99,-2.2 -2.21,-2.2z"/>
    <path class="fil2" d="M-3770.77 -767.98c-3.59,0 -6.49,2.9 -6.49,6.49l0 26.35c0,3.59 2.9,6.49 6.49,6.49 3.58,0 6.49,-2.9 6.49,-6.49l0 -26.35c0,-3.59 -2.91,-6.49 -6.49,-6.49z"/>
    <path class="fil2" d="M-3693.21 -767.98c-3.59,0 -6.49,2.9 -6.49,6.49l0 26.35c0,3.59 2.9,6.49 6.49,6.49 3.58,0 6.49,-2.9 6.49,-6.49l0 -26.35c0,-3.59 -2.91,-6.49 -6.49,-6.49z"/>
    <path class="fil2" d="M-3758.88 -771.19l53.64 0c1.4,0 2.45,-1.28 2.16,-2.65 -1.78,-8.46 -7.16,-15.59 -14.47,-19.7l4.59 -8.28c0.31,-0.56 0.11,-1.26 -0.45,-1.57 -0.56,-0.31 -1.27,-0.11 -1.58,0.45l-4.62 8.33c-3.78,-1.75 -8,-2.73 -12.45,-2.73 -4.44,0 -8.66,0.98 -12.44,2.73l-4.62 -8.33c-0.32,-0.56 -1.02,-0.76 -1.58,-0.45 -0.56,0.31 -0.76,1.01 -0.45,1.57l4.58 8.28c-7.3,4.11 -12.69,11.24 -14.46,19.7 -0.29,1.37 0.75,2.65 2.15,2.65zm42.83 -12.33l0 0c0,1.38 -1.12,2.5 -2.5,2.5 -1.37,0 -2.49,-1.12 -2.49,-2.5 0,-1.37 1.12,-2.49 2.49,-2.49 1.38,0 2.5,1.12 2.5,2.49zm-29.52 -2.49l0 0c1.38,0 2.5,1.12 2.5,2.49 0,1.38 -1.12,2.5 -2.5,2.5 -1.38,0 -2.49,-1.12 -2.49,-2.5 0,-1.37 1.11,-2.49 2.49,-2.49z"/>
   </g>
  </g>
  <g id="_105553162538944">
   <path class="fil1 str0" d="M-3731.99 -330.46c-53.46,0 -96.8,-43.34 -96.8,-96.8"/>
   <path class="fil1 str0" d="M-3828.79 -427.26c0,-53.46 43.34,-96.8 96.8,-96.8"/>
   <path class="fil1 str0" d="M-3731.99 -524.06c53.46,0 96.8,43.34 96.8,96.8"/>
   <path class="fil1 str0" d="M-3635.19 -427.26c0,53.46 -43.34,96.8 -96.8,96.8"/>
   <path class="fil2" d="M-3689.12 -463.01c-9.2,-8.39 -21.57,-10.3 -33.09,-5.12 -0.6,0.27 -1.19,0.56 -1.79,0.86l-7.99 4.13 -8 -4.13c-0.59,-0.3 -1.19,-0.59 -1.79,-0.86 -11.5,-5.18 -23.88,-3.28 -33.08,5.12 -9.51,8.66 -13.22,22.3 -9.23,33.94 1.9,5.56 5.63,10.54 10.76,14.41l41.34 31.13 41.34 -31.13c5.13,-3.87 8.85,-8.85 10.76,-14.41 3.98,-11.64 0.28,-25.28 -9.23,-33.94z"/>
  </g>
  <g id="_105553162536544">
   <g>
    <g>
     <path class="fil7" d="M-3362.71 511.88c-1.8,1.84 -3.35,3.88 -4.62,6.05l-1.94 -1c-0.28,-1.24 -1.45,-2.1 -2.74,-1.95 -1.38,0.17 -2.37,1.42 -2.21,2.8 0.17,1.38 1.42,2.36 2.79,2.2 0.28,-0.03 0.53,-0.11 0.77,-0.22l1.88 0.98c-1.05,2.31 -1.8,4.74 -2.25,7.26l3.11 0.55c0.96,-5.44 3.54,-10.44 7.47,-14.47l-2.26 -2.2z"/>
     <path class="fil7" d="M-3339.85 502.29c-0.71,0 -1.42,0.02 -2.12,0.06l-0.3 -2.6c0.78,-0.63 1.23,-1.62 1.1,-2.69 -0.19,-1.64 -1.67,-2.81 -3.31,-2.62 -1.64,0.2 -2.81,1.68 -2.62,3.32 0.13,1.06 0.79,1.92 1.69,2.35l0.3 2.6c-2.97,0.48 -5.84,1.38 -8.58,2.69l1.36 2.85c3.9,-1.86 8.09,-2.81 12.48,-2.81 2.07,0 4.14,0.22 6.15,0.66l0.67 -3.09c-2.23,-0.48 -4.52,-0.72 -6.82,-0.72z"/>
     <path class="fil7" d="M-3312.33 512.9c1.37,-0.17 2.35,-1.42 2.18,-2.8 -0.16,-1.38 -1.42,-2.36 -2.8,-2.19 -1.29,0.16 -2.23,1.26 -2.2,2.53l-1.74 1.52c-1.74,-1.8 -3.7,-3.39 -5.86,-4.75l-1.69 2.67c4.73,2.98 8.42,7.2 10.68,12.19l2.88 -1.3c-1.04,-2.31 -2.36,-4.47 -3.92,-6.44l1.67 -1.46c0.26,0.05 0.52,0.06 0.8,0.03z"/>
     <path class="fil7" d="M-3342.13 544.82c-1.6,0.1 -3.23,0.14 -4.82,0.14 -3.66,0 -7.22,-0.25 -10.33,-0.74 -1.62,-0.26 -3.52,-0.65 -5.29,-1.22 4.36,7.76 12.79,13.02 22.45,13.02 11.9,0 21.93,-7.98 24.79,-18.76 -2.84,1.87 -6.27,3.44 -10.24,4.67 -4.91,1.54 -10.64,2.54 -16.56,2.89z"/>
     <path class="fil7" d="M-3339.85 508.6c-13.96,0 -25.33,11.11 -25.33,24.77 0,1.77 0.2,3.54 0.57,5.25 2.81,2.01 11.28,3.71 22.29,3.05 11.99,-0.72 22.07,-3.99 27.8,-9 -0.03,-0.81 -0.09,-1.62 -0.19,-2.42 -1.59,-12.34 -12.39,-21.65 -25.14,-21.65zm-8.99 27.15l0 0c-4.25,0 -7.71,-3.46 -7.71,-7.71 0,-4.25 3.46,-7.71 7.71,-7.71 4.25,0 7.7,3.46 7.7,7.71 0,4.25 -3.45,7.71 -7.7,7.71zm19.74 -3.79l0 0c-3.13,0 -5.67,-2.54 -5.67,-5.66 0,-3.13 2.54,-5.67 5.67,-5.67 3.12,0 5.67,2.54 5.67,5.67 0,3.12 -2.55,5.66 -5.67,5.66z"/>
    </g>
    <path class="fil7" d="M-3273.16 516.38c-1.23,-0.48 -3.36,-1.28 -5.76,-0.99 -2.3,0.29 -3.52,1.42 -3.52,4.2l0 3.61 9.28 0 0 7.15 -9.28 0 0 22.73 -8.05 0 0 -22.73 -5.58 0 0 -7.15 5.58 0 0 -3.71c0,-7 3.73,-11.59 10.7,-11.59 2.68,0 4.82,0.51 6.63,1.28l0 7.2z"/>
    <path class="fil7" d="M-3253.57 530.27c-0.74,-0.13 -1.49,-0.2 -2.19,-0.2 -3.73,0 -6.29,2.29 -6.29,6.73l0 16.28 -8.05 0 0 -29.88 7.8 0 0 3.27c1.88,-2.81 4.75,-4.08 8.42,-4.08 1.73,0 3.53,0.54 4.56,1.41l-4.25 6.47z"/>
    <path class="fil7" d="M-3221.62 538.09c0,0.93 -0.06,2.04 -0.16,2.72l-21.18 0c0.86,4.31 3.88,6.19 7.68,6.19 2.59,0 5.39,-1.04 7.55,-2.86l4.72 5.18c-3.39,3.11 -7.71,4.53 -12.74,4.53 -9.16,0 -15.51,-6.23 -15.51,-15.64 0,-9.4 6.17,-15.82 15.11,-15.82 8.61,0 14.5,6.39 14.53,15.7zm-21.31 -2.77l0 0 13.23 0c-0.74,-3.83 -3.05,-5.99 -6.51,-5.99 -3.79,0 -6.01,2.28 -6.72,5.99z"/>
    <path class="fil7" d="M-3189.73 538.09c0,0.93 -0.07,2.04 -0.16,2.72l-21.18 0c0.86,4.31 3.88,6.19 7.68,6.19 2.59,0 5.39,-1.04 7.55,-2.86l4.72 5.18c-3.39,3.11 -7.71,4.53 -12.74,4.53 -9.16,0 -15.51,-6.23 -15.51,-15.64 0,-9.4 6.17,-15.82 15.11,-15.82 8.61,0 14.5,6.39 14.53,15.7zm-21.31 -2.77l0 0 13.23 0c-0.74,-3.83 -3.06,-5.99 -6.51,-5.99 -3.79,0 -6.01,2.28 -6.72,5.99z"/>
    <path class="fil7" d="M-3154.96 538.12c0,8.98 -6.23,15.73 -14.46,15.73 -4.01,0 -6.85,-1.57 -8.79,-3.89l0 15.45 -8.02 0 0 -42.21 7.86 0 0 3.3c1.95,-2.44 4.82,-4.11 8.92,-4.11 8.26,0 14.49,6.76 14.49,15.73zm-23.65 0l0 0c0,4.72 3.11,8.24 7.68,8.24 4.75,0 7.71,-3.67 7.71,-8.24 0,-4.56 -2.96,-8.23 -7.71,-8.23 -4.57,0 -7.68,3.51 -7.68,8.23z"/>
    <path class="fil7" d="M-3142.03 513.42c0,2.9 -2.25,5.12 -5.15,5.12 -2.9,0 -5.12,-2.22 -5.12,-5.12 0,-2.9 2.22,-5.18 5.12,-5.18 2.9,0 5.15,2.28 5.15,5.18zm-1.08 39.66l0 0 -8.05 0 0 -29.88 8.05 0 0 29.88z"/>
    <polygon class="fil7" points="-3129.67,533.84 -3118.42,523.2 -3108.55,523.2 -3123.04,537.26 -3108.46,553.08 -3118.36,553.08 -3129.67,540.99 -3129.67,553.08 -3137.72,553.08 -3137.72,508.67 -3129.67,508.67 "/>
   </g>
   <g>
    <path class="fil7" d="M-3678.1 552.81l0 -4.4c-2.19,3 -5.79,5.13 -9.94,5.13 -7.69,0 -13.13,-5.86 -13.13,-15.44 0,-9.4 5.37,-15.5 13.13,-15.5 3.96,0 7.56,1.95 9.94,5.19l0 -15.69 4.58 0 0 40.71 -4.58 0zm0 -8l0 0 0 -13.36c-1.64,-2.57 -5.18,-4.76 -8.85,-4.76 -5.92,0 -9.46,4.88 -9.46,11.41 0,6.53 3.54,11.35 9.46,11.35 3.67,0 7.21,-2.07 8.85,-4.64z"/>
    <path class="fil7" d="M-3667.6 538.04c0,-8.55 6.11,-15.44 14.53,-15.44 8.91,0 14.16,6.96 14.16,15.81l0 1.15 -23.87 0c0.37,5.56 4.28,10.2 10.62,10.2 3.36,0 6.78,-1.35 9.1,-3.73l2.19 3c-2.93,2.92 -6.89,4.51 -11.71,4.51 -8.73,0 -15.02,-6.28 -15.02,-15.5zm14.47 -11.66l0 0c-6.29,0 -9.4,5.31 -9.65,9.83l19.35 0c-0.06,-4.4 -2.99,-9.83 -9.7,-9.83z"/>
    <path class="fil7" d="M-3635.62 548.9l2.38 -3.29c1.96,2.26 5.68,4.21 9.71,4.21 4.51,0 6.95,-2.14 6.95,-5.07 0,-7.14 -18.24,-2.74 -18.24,-13.67 0,-4.58 3.96,-8.48 10.98,-8.48 5.01,0 8.55,1.89 10.93,4.27l-2.14 3.17c-1.77,-2.13 -5,-3.72 -8.79,-3.72 -4.03,0 -6.53,2.01 -6.53,4.64 0,6.47 18.25,2.2 18.25,13.67 0,4.94 -3.97,8.91 -11.6,8.91 -4.82,0 -8.91,-1.46 -11.9,-4.64z"/>
    <path class="fil7" d="M-3606.99 516.07c0,-1.71 1.4,-3.12 3.05,-3.12 1.71,0 3.11,1.41 3.11,3.12 0,1.71 -1.4,3.05 -3.11,3.05 -1.65,0 -3.05,-1.34 -3.05,-3.05zm0.79 36.74l0 0 0 -29.48 4.58 0 0 29.48 -4.58 0z"/>
    <path class="fil7" d="M-3594.05 560.38l2.31 -3.42c2.45,2.93 5.38,4.03 9.59,4.03 4.88,0 9.46,-2.38 9.46,-8.85l0 -4.21c-2.14,2.99 -5.74,5.24 -9.89,5.24 -7.69,0 -13.12,-5.73 -13.12,-15.25 0,-9.46 5.37,-15.32 13.12,-15.32 3.97,0 7.51,1.95 9.89,5.19l0 -4.46 4.57 0 0 28.62c0,9.77 -6.83,12.82 -14.03,12.82 -5.01,0 -8.43,-0.98 -11.9,-4.39zm21.36 -16.05l0 0 0 -12.88c-1.59,-2.57 -5.13,-4.76 -8.79,-4.76 -5.92,0 -9.46,4.7 -9.46,11.23 0,6.47 3.54,11.23 9.46,11.23 3.66,0 7.2,-2.26 8.79,-4.82z"/>
    <path class="fil7" d="M-3540.59 552.81l0 -19.29c0,-5.19 -2.62,-6.83 -6.59,-6.83 -3.6,0 -7.02,2.19 -8.73,4.58l0 21.54 -4.58 0 0 -29.48 4.58 0 0 4.27c2.08,-2.44 6.1,-5 10.5,-5 6.16,0 9.4,3.11 9.4,9.52l0 20.69 -4.58 0z"/>
    <path class="fil7" d="M-3530.09 538.04c0,-8.55 6.1,-15.44 14.52,-15.44 8.91,0 14.16,6.96 14.16,15.81l0 1.15 -23.86 0c0.36,5.56 4.27,10.2 10.62,10.2 3.35,0 6.77,-1.35 9.09,-3.73l2.2 3c-2.93,2.92 -6.9,4.51 -11.72,4.51 -8.73,0 -15.01,-6.28 -15.01,-15.5zm14.46 -11.66l0 0c-6.28,0 -9.4,5.31 -9.64,9.83l19.35 0c-0.06,-4.4 -3,-9.83 -9.71,-9.83z"/>
    <path class="fil7" d="M-3474.19 552.81l0 -4.4c-2.19,3 -5.79,5.13 -9.95,5.13 -7.69,0 -13.12,-5.86 -13.12,-15.44 0,-9.4 5.37,-15.5 13.12,-15.5 3.97,0 7.57,1.95 9.95,5.19l0 -15.69 4.58 0 0 40.71 -4.58 0zm0 -8l0 0 0 -13.36c-1.65,-2.57 -5.18,-4.76 -8.85,-4.76 -5.92,0 -9.46,4.88 -9.46,11.41 0,6.53 3.54,11.35 9.46,11.35 3.67,0 7.2,-2.07 8.85,-4.64z"/>
    <path class="fil7" d="M-3447.76 552.81l0 -40.71 4.58 0 0 15.69c2.38,-3.24 5.92,-5.19 9.95,-5.19 7.69,0 13.12,6.1 13.12,15.5 0,9.58 -5.43,15.44 -13.12,15.44 -4.15,0 -7.76,-2.13 -9.95,-5.13l0 4.4 -4.58 0zm13.36 -3.36l0 0c5.99,0 9.53,-4.82 9.53,-11.35 0,-6.53 -3.54,-11.41 -9.53,-11.41 -3.6,0 -7.2,2.19 -8.78,4.76l0 13.36c1.58,2.57 5.18,4.64 8.78,4.64z"/>
    <path class="fil7" d="M-3415.11 560.19c0.67,0.31 1.77,0.49 2.5,0.49 2.02,0 3.36,-0.67 4.4,-3.11l1.95 -4.46 -12.33 -29.78 4.95 0 9.82 24.17 9.77 -24.17 5 0 -14.77 35.46c-1.77,4.27 -4.76,5.92 -8.66,5.98 -0.98,0 -2.51,-0.18 -3.36,-0.43l0.73 -4.15z"/>
   </g>
  </g>
 </g>
</svg>
